<?xml version="1.0" encoding="UTF-8" standalone="no"?>
<!-- Created with Inkscape (http://www.inkscape.org/) -->
<svg
   xmlns:dc="http://purl.org/dc/elements/1.1/"
   xmlns:cc="http://web.resource.org/cc/"
   xmlns:rdf="http://www.w3.org/1999/02/22-rdf-syntax-ns#"
   xmlns:svg="http://www.w3.org/2000/svg"
   xmlns="http://www.w3.org/2000/svg"
   xmlns:sodipodi="http://inkscape.sourceforge.net/DTD/sodipodi-0.dtd"
   xmlns:inkscape="http://www.inkscape.org/namespaces/inkscape"
   width="744.09448819"
   height="1052.3622047"
   id="svg1316"
   sodipodi:version="0.32"
   inkscape:version="0.43"
   sodipodi:docbase="/home/borior/Desktop"
   sodipodi:docname="okf.svg">
  <defs
     id="defs1318" />
  <sodipodi:namedview
     id="base"
     pagecolor="#ffffff"
     bordercolor="#666666"
     borderopacity="1.0"
     inkscape:pageopacity="0.0"
     inkscape:pageshadow="2"
     inkscape:zoom="0.70710678"
     inkscape:cx="533.34166"
     inkscape:cy="696.75118"
     inkscape:document-units="px"
     inkscape:current-layer="layer1"
     inkscape:window-width="1512"
     inkscape:window-height="950"
     inkscape:window-x="72"
     inkscape:window-y="0" />
  <metadata
     id="metadata1321">
    <rdf:RDF>
      <cc:Work
         rdf:about="">
        <dc:format>image/svg+xml</dc:format>
        <dc:type
           rdf:resource="http://purl.org/dc/dcmitype/StillImage" />
      </cc:Work>
    </rdf:RDF>
  </metadata>
  <g
     inkscape:label="Layer 1"
     inkscape:groupmode="layer"
     id="layer1">
    <rect
       style="fill:#688f71;fill-opacity:1"
       id="rect1347"
       width="744.09814"
       height="344.62286"
       x="0.0054549263"
       y="0.0011963726" />
    <rect
       style="fill:#000000;fill-opacity:1"
       id="rect2229"
       width="744.09814"
       height="344.62286"
       x="-0.31293577"
       y="708.32483" />
    <g
       id="g9536"
       transform="translate(-84,-12)">
      <text
         sodipodi:linespacing="125%"
         id="text8645"
         y="284.93896"
         x="556.29657"
         style="font-size:290.13104248px;font-style:normal;font-variant:normal;font-weight:normal;font-stretch:normal;text-align:start;line-height:125%;writing-mode:lr-tb;text-anchor:start;fill:#394e3e;fill-opacity:1;stroke:none;stroke-width:1px;stroke-linecap:butt;stroke-linejoin:miter;stroke-opacity:1;font-family:Helvetica Neue LT Std"
         xml:space="preserve"><tspan
           y="284.93896"
           x="556.29657"
           id="tspan8647"
           sodipodi:role="line">O</tspan></text>
      <text
         transform="scale(-1,1)"
         sodipodi:linespacing="125%"
         id="text8649"
         y="233.2101"
         x="-672.74323"
         style="font-size:145.51098633px;font-style:normal;font-variant:normal;font-weight:normal;font-stretch:normal;text-align:start;line-height:125%;writing-mode:lr-tb;text-anchor:start;fill:#394e3e;fill-opacity:1;stroke:none;stroke-width:1px;stroke-linecap:butt;stroke-linejoin:miter;stroke-opacity:1;font-family:Helvetica Neue LT Std"
         xml:space="preserve"><tspan
           y="233.2101"
           x="-672.74323"
           id="tspan8651"
           sodipodi:role="line">K</tspan></text>
      <text
         sodipodi:linespacing="125%"
         id="text8653"
         y="233.2101"
         x="655.97858"
         style="font-size:145.51098633px;font-style:normal;font-variant:normal;font-weight:normal;font-stretch:normal;text-align:start;line-height:125%;writing-mode:lr-tb;text-anchor:start;fill:#394e3e;fill-opacity:1;stroke:none;stroke-width:1px;stroke-linecap:butt;stroke-linejoin:miter;stroke-opacity:1;font-family:Helvetica Neue LT Std"
         xml:space="preserve"><tspan
           y="233.2101"
           x="655.97858"
           id="tspan8655"
           sodipodi:role="line">D</tspan></text>
    </g>
    <g
       id="g5890"
       transform="translate(69.42561,-6.060974)">
      <text
         sodipodi:linespacing="125%"
         id="text3176"
         y="277.1062"
         x="400.90338"
         style="font-size:290.13104248px;font-style:normal;font-variant:normal;font-weight:normal;font-stretch:normal;text-align:start;line-height:125%;writing-mode:lr-tb;text-anchor:start;fill:#ffffff;fill-opacity:1;stroke:none;stroke-width:1px;stroke-linecap:butt;stroke-linejoin:miter;stroke-opacity:1;font-family:Helvetica Neue LT Std"
         xml:space="preserve"><tspan
           y="277.1062"
           x="400.90338"
           id="tspan3178"
           sodipodi:role="line">O</tspan></text>
      <text
         transform="scale(-1,1)"
         sodipodi:linespacing="125%"
         id="text3180"
         y="225.37733"
         x="-517.35004"
         style="font-size:145.51098633px;font-style:normal;font-variant:normal;font-weight:normal;font-stretch:normal;text-align:start;line-height:125%;writing-mode:lr-tb;text-anchor:start;fill:#ffffff;fill-opacity:1;stroke:none;stroke-width:1px;stroke-linecap:butt;stroke-linejoin:miter;stroke-opacity:1;font-family:Helvetica Neue LT Std"
         xml:space="preserve"><tspan
           y="225.37733"
           x="-517.35004"
           id="tspan3182"
           sodipodi:role="line">K</tspan></text>
      <text
         sodipodi:linespacing="125%"
         id="text3184"
         y="225.37733"
         x="500.58539"
         style="font-size:145.51098633px;font-style:normal;font-variant:normal;font-weight:normal;font-stretch:normal;text-align:start;line-height:125%;writing-mode:lr-tb;text-anchor:start;fill:#ffffff;fill-opacity:1;stroke:none;stroke-width:1px;stroke-linecap:butt;stroke-linejoin:miter;stroke-opacity:1;font-family:Helvetica Neue LT Std"
         xml:space="preserve"><tspan
           y="225.37733"
           x="500.58539"
           id="tspan3186"
           sodipodi:role="line">D</tspan></text>
    </g>
    <g
       id="g6788"
       transform="translate(-18.2741,0.559643)">
      <text
         sodipodi:linespacing="125%"
         id="text5900"
         y="624.9389"
         x="82.796577"
         style="font-size:290.13104248px;font-style:normal;font-variant:normal;font-weight:normal;font-stretch:normal;text-align:start;line-height:125%;writing-mode:lr-tb;text-anchor:start;fill:#000000;fill-opacity:1;stroke:none;stroke-width:1px;stroke-linecap:butt;stroke-linejoin:miter;stroke-opacity:1;font-family:Helvetica Neue LT Std"
         xml:space="preserve"><tspan
           y="624.9389"
           x="82.796577"
           id="tspan5902"
           sodipodi:role="line">O</tspan></text>
      <text
         transform="scale(-1,1)"
         sodipodi:linespacing="125%"
         id="text5904"
         y="573.21002"
         x="-199.26672"
         style="font-size:145.51098633px;font-style:normal;font-variant:normal;font-weight:normal;font-stretch:normal;text-align:start;line-height:125%;writing-mode:lr-tb;text-anchor:start;fill:#000000;fill-opacity:1;stroke:none;stroke-width:1px;stroke-linecap:butt;stroke-linejoin:miter;stroke-opacity:1;font-family:Helvetica Neue LT Std"
         xml:space="preserve"><tspan
           y="573.21002"
           x="-199.26672"
           id="tspan5906"
           sodipodi:role="line">K</tspan></text>
      <path
         sodipodi:nodetypes="ccccccccccc"
         id="path5908"
         d="M 193.76366,573.21003 L 203.65841,573.21003 L 203.65841,523.73629 L 253.42317,523.73629 L 253.42317,515.29666 L 203.65841,515.29666 L 203.65841,477.75482 L 262.43014,477.75482 L 259.68014,469.31519 L 193.76366,469.31519 L 193.76366,573.21003"
         style="font-size:145.51098633px;font-style:normal;font-variant:normal;font-weight:normal;font-stretch:normal;text-align:start;line-height:125%;writing-mode:lr-tb;text-anchor:start;fill:#000000;fill-opacity:1;stroke:none;stroke-width:1px;stroke-linecap:butt;stroke-linejoin:miter;stroke-opacity:1;font-family:Helvetica Neue LT Std" />
    </g>
    <g
       id="g6795"
       transform="translate(2.398082e-14,708.9066)">
      <text
         sodipodi:linespacing="125%"
         id="text6797"
         y="271.04523"
         x="64.522476"
         style="font-size:290.13104248px;font-style:normal;font-variant:normal;font-weight:normal;font-stretch:normal;text-align:start;line-height:125%;writing-mode:lr-tb;text-anchor:start;fill:#ffffff;fill-opacity:1;stroke:none;stroke-width:1px;stroke-linecap:butt;stroke-linejoin:miter;stroke-opacity:1;font-family:Helvetica Neue LT Std"
         xml:space="preserve"><tspan
           y="271.04523"
           x="64.522476"
           id="tspan6799"
           sodipodi:role="line">O</tspan></text>
      <text
         transform="scale(-1,1)"
         sodipodi:linespacing="125%"
         id="text6801"
         y="219.31633"
         x="-180.99263"
         style="font-size:145.51098633px;font-style:normal;font-variant:normal;font-weight:normal;font-stretch:normal;text-align:start;line-height:125%;writing-mode:lr-tb;text-anchor:start;fill:#ffffff;fill-opacity:1;stroke:none;stroke-width:1px;stroke-linecap:butt;stroke-linejoin:miter;stroke-opacity:1;font-family:Helvetica Neue LT Std"
         xml:space="preserve"><tspan
           y="219.31633"
           x="-180.99263"
           id="tspan6803"
           sodipodi:role="line">K</tspan></text>
      <path
         sodipodi:nodetypes="ccccccccccc"
         id="path6805"
         d="M 175.48956,219.31633 L 185.38431,219.31633 L 185.38431,169.84259 L 235.14907,169.84259 L 235.14907,161.40296 L 185.38431,161.40296 L 185.38431,123.86112 L 244.15604,123.86112 L 241.40604,115.42149 L 175.48956,115.42149 L 175.48956,219.31633"
         style="font-size:145.51098633px;font-style:normal;font-variant:normal;font-weight:normal;font-stretch:normal;text-align:start;line-height:125%;writing-mode:lr-tb;text-anchor:start;fill:#ffffff;fill-opacity:1;stroke:none;stroke-width:1px;stroke-linecap:butt;stroke-linejoin:miter;stroke-opacity:1;font-family:Helvetica Neue LT Std" />
    </g>
    <g
       id="g6807"
       transform="translate(69.42561,702.8457)">
      <text
         sodipodi:linespacing="125%"
         id="text6809"
         y="277.1062"
         x="400.90338"
         style="font-size:290.13104248px;font-style:normal;font-variant:normal;font-weight:normal;font-stretch:normal;text-align:start;line-height:125%;writing-mode:lr-tb;text-anchor:start;fill:#ffffff;fill-opacity:1;stroke:none;stroke-width:1px;stroke-linecap:butt;stroke-linejoin:miter;stroke-opacity:1;font-family:Helvetica Neue LT Std"
         xml:space="preserve"><tspan
           y="277.1062"
           x="400.90338"
           id="tspan6811"
           sodipodi:role="line">O</tspan></text>
      <text
         transform="scale(-1,1)"
         sodipodi:linespacing="125%"
         id="text6813"
         y="225.37733"
         x="-517.35004"
         style="font-size:145.51098633px;font-style:normal;font-variant:normal;font-weight:normal;font-stretch:normal;text-align:start;line-height:125%;writing-mode:lr-tb;text-anchor:start;fill:#ffffff;fill-opacity:1;stroke:none;stroke-width:1px;stroke-linecap:butt;stroke-linejoin:miter;stroke-opacity:1;font-family:Helvetica Neue LT Std"
         xml:space="preserve"><tspan
           y="225.37733"
           x="-517.35004"
           id="tspan6815"
           sodipodi:role="line">K</tspan></text>
      <text
         sodipodi:linespacing="125%"
         id="text6817"
         y="225.37733"
         x="500.58539"
         style="font-size:145.51098633px;font-style:normal;font-variant:normal;font-weight:normal;font-stretch:normal;text-align:start;line-height:125%;writing-mode:lr-tb;text-anchor:start;fill:#ffffff;fill-opacity:1;stroke:none;stroke-width:1px;stroke-linecap:butt;stroke-linejoin:miter;stroke-opacity:1;font-family:Helvetica Neue LT Std"
         xml:space="preserve"><tspan
           y="225.37733"
           x="500.58539"
           id="tspan6819"
           sodipodi:role="line">D</tspan></text>
    </g>
    <g
       id="g7714"
       transform="translate(49.53242,-10.44048)">
      <text
         sodipodi:linespacing="125%"
         id="text6823"
         y="635.93903"
         x="420.79657"
         style="font-size:290.13104248px;font-style:normal;font-variant:normal;font-weight:normal;font-stretch:normal;text-align:start;line-height:125%;writing-mode:lr-tb;text-anchor:start;fill:#000000;fill-opacity:1;stroke:none;stroke-width:1px;stroke-linecap:butt;stroke-linejoin:miter;stroke-opacity:1;font-family:Helvetica Neue LT Std"
         xml:space="preserve"><tspan
           y="635.93903"
           x="420.79657"
           id="tspan6825"
           sodipodi:role="line">O</tspan></text>
      <text
         transform="scale(-1,1)"
         sodipodi:linespacing="125%"
         id="text6827"
         y="584.21014"
         x="-537.24323"
         style="font-size:145.51098633px;font-style:normal;font-variant:normal;font-weight:normal;font-stretch:normal;text-align:start;line-height:125%;writing-mode:lr-tb;text-anchor:start;fill:#000000;fill-opacity:1;stroke:none;stroke-width:1px;stroke-linecap:butt;stroke-linejoin:miter;stroke-opacity:1;font-family:Helvetica Neue LT Std"
         xml:space="preserve"><tspan
           y="584.21014"
           x="-537.24323"
           id="tspan6829"
           sodipodi:role="line">K</tspan></text>
      <text
         sodipodi:linespacing="125%"
         id="text6831"
         y="584.21014"
         x="520.47858"
         style="font-size:145.51098633px;font-style:normal;font-variant:normal;font-weight:normal;font-stretch:normal;text-align:start;line-height:125%;writing-mode:lr-tb;text-anchor:start;fill:#000000;fill-opacity:1;stroke:none;stroke-width:1px;stroke-linecap:butt;stroke-linejoin:miter;stroke-opacity:1;font-family:Helvetica Neue LT Std"
         xml:space="preserve"><tspan
           y="584.21014"
           x="520.47858"
           id="tspan6833"
           sodipodi:role="line">D</tspan></text>
    </g>
    <g
       id="g8612"
       transform="translate(-1,-1)">
      <text
         sodipodi:linespacing="125%"
         id="text7724"
         y="273.93896"
         x="67.296577"
         style="font-size:290.13104248px;font-style:normal;font-variant:normal;font-weight:normal;font-stretch:normal;text-align:start;line-height:125%;writing-mode:lr-tb;text-anchor:start;fill:#394e3e;fill-opacity:1;stroke:none;stroke-width:1px;stroke-linecap:butt;stroke-linejoin:miter;stroke-opacity:1;font-family:Helvetica Neue LT Std"
         xml:space="preserve"><tspan
           y="273.93896"
           x="67.296577"
           id="tspan7726"
           sodipodi:role="line">O</tspan></text>
      <text
         transform="scale(-1,1)"
         sodipodi:linespacing="125%"
         id="text7728"
         y="222.21007"
         x="-183.76672"
         style="font-size:145.51098633px;font-style:normal;font-variant:normal;font-weight:normal;font-stretch:normal;text-align:start;line-height:125%;writing-mode:lr-tb;text-anchor:start;fill:#394e3e;fill-opacity:1;stroke:none;stroke-width:1px;stroke-linecap:butt;stroke-linejoin:miter;stroke-opacity:1;font-family:Helvetica Neue LT Std"
         xml:space="preserve"><tspan
           y="222.21007"
           x="-183.76672"
           id="tspan7730"
           sodipodi:role="line">K</tspan></text>
      <path
         sodipodi:nodetypes="ccccccccccc"
         id="path7732"
         d="M 178.26366,222.21007 L 188.15841,222.21007 L 188.15841,172.73633 L 237.92317,172.73633 L 237.92317,164.2967 L 188.15841,164.2967 L 188.15841,126.75486 L 246.93014,126.75486 L 244.18014,118.31523 L 178.26366,118.31523 L 178.26366,222.21007"
         style="font-size:145.51098633px;font-style:normal;font-variant:normal;font-weight:normal;font-stretch:normal;text-align:start;line-height:125%;writing-mode:lr-tb;text-anchor:start;fill:#394e3e;fill-opacity:1;stroke:none;stroke-width:1px;stroke-linecap:butt;stroke-linejoin:miter;stroke-opacity:1;font-family:Helvetica Neue LT Std" />
    </g>
    <g
       id="g5883">
      <text
         sodipodi:linespacing="125%"
         id="text3106"
         y="271.04523"
         x="64.522476"
         style="font-size:290.13104248px;font-style:normal;font-variant:normal;font-weight:normal;font-stretch:normal;text-align:start;line-height:125%;writing-mode:lr-tb;text-anchor:start;fill:#ffffff;fill-opacity:1;stroke:none;stroke-width:1px;stroke-linecap:butt;stroke-linejoin:miter;stroke-opacity:1;font-family:Helvetica Neue LT Std"
         xml:space="preserve"><tspan
           y="271.04523"
           x="64.522476"
           id="tspan3108"
           sodipodi:role="line">O</tspan></text>
      <text
         transform="scale(-1,1)"
         sodipodi:linespacing="125%"
         id="text3110"
         y="219.31633"
         x="-180.99263"
         style="font-size:145.51098633px;font-style:normal;font-variant:normal;font-weight:normal;font-stretch:normal;text-align:start;line-height:125%;writing-mode:lr-tb;text-anchor:start;fill:#ffffff;fill-opacity:1;stroke:none;stroke-width:1px;stroke-linecap:butt;stroke-linejoin:miter;stroke-opacity:1;font-family:Helvetica Neue LT Std"
         xml:space="preserve"><tspan
           y="219.31633"
           x="-180.99263"
           id="tspan3112"
           sodipodi:role="line">K</tspan></text>
      <path
         sodipodi:nodetypes="ccccccccccc"
         id="text3114"
         d="M 175.48956,219.31633 L 185.38431,219.31633 L 185.38431,169.84259 L 235.14907,169.84259 L 235.14907,161.40296 L 185.38431,161.40296 L 185.38431,123.86112 L 244.15604,123.86112 L 241.40604,115.42149 L 175.48956,115.42149 L 175.48956,219.31633"
         style="font-size:145.51098633px;font-style:normal;font-variant:normal;font-weight:normal;font-stretch:normal;text-align:start;line-height:125%;writing-mode:lr-tb;text-anchor:start;fill:#ffffff;fill-opacity:1;stroke:none;stroke-width:1px;stroke-linecap:butt;stroke-linejoin:miter;stroke-opacity:1;font-family:Helvetica Neue LT Std" />
    </g>
  </g>
</svg>
