<?xml version="1.0" encoding="utf-8"?>
<!-- Generator: Adobe Illustrator 16.2.1, SVG Export Plug-In . SVG Version: 6.00 Build 0)  -->
<!DOCTYPE svg PUBLIC "-//W3C//DTD SVG 1.1//EN" "http://www.w3.org/Graphics/SVG/1.1/DTD/svg11.dtd">
<svg version="1.1" id="Layer_1" xmlns="http://www.w3.org/2000/svg" xmlns:xlink="http://www.w3.org/1999/xlink" x="0px" y="0px"
	 width="102.35px" height="102.35px" viewBox="0 0 102.35 102.35" enable-background="new 0 0 102.35 102.35" xml:space="preserve">
<g>
	<rect fill="#84AEA5" width="102.35" height="102.35"/>
	<g>
		<polygon fill="#FFFFFF" points="22.522,41.987 39.61,40.739 51.175,37.647 60.497,29.901 62.049,30.993 62.049,67.143 
			55.145,62.515 45.824,58.142 38.229,57.546 22.522,52.507 		"/>
		<g>
			<g>
				<path d="M75.926,37.647l-3.705,3.623c1.816,2.039,2.922,4.724,2.922,7.663c0,2.897-1.076,5.548-2.846,7.576l3.707,3.624
					c2.682-2.966,4.316-6.896,4.316-11.2C80.321,44.587,78.653,40.624,75.926,37.647z"/>
				<path d="M82.731,30.993l-3.701,3.619c3.492,3.762,5.633,8.795,5.633,14.321c0,5.483-2.107,10.484-5.555,14.235l3.701,3.619
					c4.361-4.686,7.031-10.964,7.031-17.854C89.84,42.001,87.137,35.689,82.731,30.993z"/>
			</g>
			<path d="M64.167,40.928V27.933c0-0.912-0.574-1.725-1.434-2.031s-1.818-0.041-2.395,0.666
				c-6.346,7.758-15.725,12.207-25.735,12.207H22.521c-0.982,0-1.811,0.658-2.071,1.558c-4.43,0.268-7.94,3.943-7.94,8.44
				s3.511,8.173,7.94,8.44c0.261,0.899,1.089,1.558,2.071,1.558h12.083c10.01,0,19.389,4.449,25.735,12.207
				c0.418,0.512,1.035,0.792,1.67,0.792c0.242,0,0.488-0.04,0.725-0.126c0.859-0.307,1.434-1.119,1.434-2.031V56.617
				c2.75-1.534,4.613-4.471,4.613-7.845S66.917,42.462,64.167,40.928z M24.679,43.199c0.182-0.068,0.379-0.107,0.584-0.11h9.264
				h0.077c0.001,0-0.001,0,0,0c0.029,0,0.058,0,0.087,0c9.406-0.021,18.314-3.52,25.16-9.752v6.461
				c-0.016,0-0.031-0.001-0.047-0.001v17.951c0.016,0,0.031-0.001,0.047-0.001v6.461c-5.121-4.662-11.396-7.793-18.169-9.084V46.54
				h-6.588h-9.811c-0.213,0-0.416-0.04-0.604-0.11c-0.229-0.085-0.434-0.216-0.604-0.384c-0.319-0.312-0.518-0.749-0.518-1.231
				C23.557,44.074,24.023,43.444,24.679,43.199z"/>
			<path d="M38.186,62.075H25.321l5.564,13.434c0.267,0.645,0.896,1.066,1.594,1.066h9.129c0.576,0,1.114-0.289,1.435-0.768
				c0.32-0.48,0.38-1.088,0.159-1.62L38.186,62.075z"/>
		</g>
	</g>
</g>
</svg>
