<?xml version="1.0" encoding="UTF-8" standalone="no"?>
<!-- Created with Inkscape (http://www.inkscape.org/) -->
<svg
   xmlns:dc="http://purl.org/dc/elements/1.1/"
   xmlns:cc="http://web.resource.org/cc/"
   xmlns:rdf="http://www.w3.org/1999/02/22-rdf-syntax-ns#"
   xmlns:svg="http://www.w3.org/2000/svg"
   xmlns="http://www.w3.org/2000/svg"
   xmlns:sodipodi="http://inkscape.sourceforge.net/DTD/sodipodi-0.dtd"
   xmlns:inkscape="http://www.inkscape.org/namespaces/inkscape"
   width="744.09448819"
   height="1052.3622047"
   id="svg2"
   sodipodi:version="0.32"
   inkscape:version="0.42.2"
   sodipodi:docbase="/Users/rgrp/svnroot/okf/scratchpad/roadmap"
   sodipodi:docname="okf_stack.svg"
   inkscape:export-filename="/Users/rgrp/svnroot/okf/scratchpad/roadmap/okf_stack.png"
   inkscape:export-xdpi="90.000000"
   inkscape:export-ydpi="90.000000">
  <defs
     id="defs4" />
  <sodipodi:namedview
     id="base"
     pagecolor="#ffffff"
     bordercolor="#666666"
     borderopacity="1.0"
     inkscape:pageopacity="0.0"
     inkscape:pageshadow="2"
     inkscape:zoom="1.0000000"
     inkscape:cx="372.04724"
     inkscape:cy="920.82792"
     inkscape:document-units="px"
     inkscape:current-layer="layer1"
     showguides="true"
     inkscape:guide-bbox="true"
     inkscape:window-width="1237"
     inkscape:window-height="980"
     inkscape:window-x="1024"
     inkscape:window-y="22" />
  <metadata
     id="metadata7">
    <rdf:RDF>
      <cc:Work
         rdf:about="">
        <dc:format>image/svg+xml</dc:format>
        <dc:type
           rdf:resource="http://purl.org/dc/dcmitype/StillImage" />
      </cc:Work>
    </rdf:RDF>
  </metadata>
  <g
     inkscape:label="Layer 1"
     inkscape:groupmode="layer"
     id="layer1">
    <rect
       style="opacity:1.0000000;color:#000000;fill:none;fill-opacity:1.0000000;fill-rule:nonzero;stroke:#000000;stroke-width:6.5622454;stroke-linecap:butt;stroke-linejoin:miter;marker:none;marker-start:none;marker-mid:none;marker-end:none;stroke-miterlimit:4.0000000;stroke-dasharray:none;stroke-dashoffset:0.0000000;stroke-opacity:1.0000000;visibility:visible;display:inline;overflow:visible"
       id="rect4540"
       width="661.05640"
       height="579.08997"
       x="41.471794"
       y="404.81720"
       rx="32.611938"
       ry="32.611938" />
    <text
       xml:space="preserve"
       style="font-size:12.000000px;font-style:normal;font-weight:normal;fill:#000000;fill-opacity:1.0000000;stroke:none;stroke-width:1.0000000px;stroke-linecap:butt;stroke-linejoin:miter;stroke-opacity:1.0000000;font-family:Bitstream Vera Sans"
       x="381.30881"
       y="448.29562"
       id="text6466"><tspan
         sodipodi:role="line"
         id="tspan6468"
         x="381.30881"
         y="448.29562" /></text>
    <g
       id="g15550"
       transform="translate(15.66952,4.298084)">
      <rect
         rx="32.611938"
         ry="32.611938"
         y="423.58749"
         x="473.15826"
         height="153.89551"
         width="190.05000"
         id="rect17377"
         style="font-size:20.000000px;font-style:normal;font-variant:normal;font-weight:normal;font-stretch:normal;text-align:center;line-height:125.00000%;writing-mode:lr-tb;text-anchor:middle;fill:#6362a3;fill-opacity:1.0000000;stroke-linecap:round;stroke-linejoin:round;font-family:Monospace" />
      <rect
         style="font-size:20.000000px;font-style:normal;font-variant:normal;font-weight:normal;font-stretch:normal;text-align:center;line-height:125.00000%;writing-mode:lr-tb;text-anchor:middle;fill:#6362a3;fill-opacity:1.0000000;stroke-linecap:round;stroke-linejoin:round;font-family:Monospace"
         id="rect17375"
         width="190.05000"
         height="153.89551"
         x="47.158257"
         y="423.58749"
         ry="32.611938"
         rx="32.611938" />
      <rect
         rx="32.611938"
         ry="32.611938"
         y="644.85901"
         x="47.158257"
         height="194.67566"
         width="296.62991"
         id="rect4942"
         style="font-size:20.000000px;font-style:normal;font-variant:normal;font-weight:normal;font-stretch:normal;text-align:center;line-height:125.00000%;writing-mode:lr-tb;text-anchor:middle;fill:#6362a3;fill-opacity:1.0000000;stroke-linecap:round;stroke-linejoin:round;font-family:Monospace" />
      <rect
         rx="32.611938"
         ry="32.611938"
         y="852.43335"
         x="47.158257"
         height="104.10735"
         width="618.34442"
         id="rect2762"
         style="font-size:20.000000px;font-style:normal;font-variant:normal;font-weight:normal;font-stretch:normal;text-align:center;line-height:125.00000%;writing-mode:lr-tb;text-anchor:middle;fill:#60936b;fill-opacity:1.0000000;stroke-linecap:round;stroke-linejoin:round;font-family:Monospace" />
      <text
         transform="scale(0.924327,1.081868)"
         sodipodi:linespacing="125.00000%"
         id="text4944"
         y="830.43146"
         x="386.02991"
         style="font-size:19.999981px;font-style:normal;font-variant:normal;font-weight:normal;font-stretch:normal;text-align:center;line-height:125.00000%;writing-mode:lr-tb;text-anchor:middle;fill:#000000;fill-opacity:1.0000000;stroke:none;stroke-width:1.0000000px;stroke-linecap:butt;stroke-linejoin:miter;stroke-opacity:1.0000000;font-family:Monospace"
         xml:space="preserve"><tspan
           y="830.43146"
           x="386.02991"
           id="tspan4946"
           sodipodi:role="line">OPEN KNOWLEDGE</tspan><tspan
           id="tspan6400"
           y="855.43143"
           x="386.02991"
           sodipodi:role="line">DEFINITION</tspan></text>
      <rect
         rx="32.611938"
         ry="32.611938"
         y="423.58749"
         x="260.15826"
         height="153.89551"
         width="190.05000"
         id="rect6420"
         style="font-size:20.000000px;font-style:normal;font-variant:normal;font-weight:normal;font-stretch:normal;text-align:center;line-height:125.00000%;writing-mode:lr-tb;text-anchor:middle;fill:#6362a3;fill-opacity:1.0000000;stroke-linecap:round;stroke-linejoin:round;font-family:Monospace" />
      <text
         transform="scale(0.924327,1.081868)"
         sodipodi:linespacing="125.00000%"
         id="text6422"
         y="653.53265"
         x="211.47623"
         style="font-size:19.999981px;font-style:normal;font-variant:normal;font-weight:normal;font-stretch:normal;text-align:center;line-height:125.00000%;writing-mode:lr-tb;text-anchor:middle;fill:#000000;fill-opacity:1.0000000;stroke:none;stroke-width:1.0000000px;stroke-linecap:butt;stroke-linejoin:miter;stroke-opacity:1.0000000;font-family:Monospace"
         xml:space="preserve"><tspan
           id="tspan6464"
           y="653.53265"
           x="211.47623"
           sodipodi:role="line">Information</tspan><tspan
           id="tspan1339"
           y="678.53263"
           x="211.47622"
           sodipodi:role="line">Accessibility</tspan><tspan
           id="tspan1341"
           y="703.53261"
           x="211.47623"
           sodipodi:role="line">Initiative</tspan><tspan
           id="tspan1343"
           y="728.53258"
           x="211.47623"
           sodipodi:role="line">(Open Formats)</tspan></text>
      <text
         transform="scale(0.924327,1.081868)"
         sodipodi:linespacing="125.00000%"
         id="text6430"
         y="455.16806"
         x="153.73074"
         style="font-size:19.999977px;font-style:normal;font-variant:normal;font-weight:normal;font-stretch:normal;text-indent:0.0000000;text-align:center;text-decoration:none;line-height:125.00000%;letter-spacing:normal;word-spacing:normal;text-transform:none;direction:ltr;block-progression:tb;writing-mode:lr-tb;text-anchor:middle;opacity:1.0000000;color:#000000;fill:#000000;fill-opacity:1.0000000;fill-rule:nonzero;stroke:none;stroke-width:1.0000000px;stroke-linecap:butt;stroke-linejoin:miter;marker:none;marker-start:none;marker-mid:none;marker-end:none;stroke-miterlimit:4.0000000;stroke-dasharray:none;stroke-dashoffset:0.0000000;stroke-opacity:1.0000000;visibility:visible;display:inline;overflow:visible;font-family:Monospace"
         xml:space="preserve"><tspan
           id="tspan6434"
           y="455.16806"
           x="153.73074"
           sodipodi:role="line">OKF Network</tspan><tspan
           id="tspan6436"
           y="480.16803"
           x="153.73074"
           sodipodi:role="line">(Community)</tspan></text>
      <rect
         transform="scale(1.000000,-1.000000)"
         rx="32.611938"
         ry="32.611938"
         y="-629.27637"
         x="47.158257"
         height="40.708839"
         width="617.28101"
         id="rect2856"
         style="font-size:20.000000px;font-style:normal;font-variant:normal;font-weight:normal;font-stretch:normal;text-align:center;line-height:125.00000%;writing-mode:lr-tb;text-anchor:middle;fill:#6362a3;fill-opacity:1.0000000;stroke-linecap:round;stroke-linejoin:round;font-family:Monospace" />
      <rect
         rx="32.611938"
         ry="32.611938"
         y="645.98358"
         x="359.44031"
         height="194.67566"
         width="301.46301"
         id="rect1345"
         style="font-size:20.000000px;font-style:normal;font-variant:normal;font-weight:normal;font-stretch:normal;text-align:center;line-height:125.00000%;writing-mode:lr-tb;text-anchor:middle;fill:#6362a3;fill-opacity:1.0000000;stroke-linecap:round;stroke-linejoin:round;font-family:Monospace" />
      <text
         transform="scale(0.996400,1.003613)"
         sodipodi:linespacing="125.00000%"
         id="text1347"
         y="708.7265"
         x="512.01508"
         style="font-size:20.000000px;font-style:normal;font-variant:normal;font-weight:normal;font-stretch:normal;text-align:center;line-height:125.00000%;writing-mode:lr-tb;text-anchor:middle;fill:#000000;fill-opacity:1.0000000;stroke:none;stroke-width:1.0000000px;stroke-linecap:butt;stroke-linejoin:miter;stroke-opacity:1.0000000;font-family:Monospace"
         xml:space="preserve"><tspan
           id="tspan1355"
           y="708.72650"
           x="512.01508"
           sodipodi:role="line">Open</tspan><tspan
           id="tspan1357"
           y="733.72650"
           x="512.01508"
           sodipodi:role="line">Knowledge</tspan><tspan
           id="tspan1359"
           y="758.72650"
           x="512.01508"
           sodipodi:role="line">Licenses</tspan><tspan
           id="tspan1363"
           y="783.72650"
           x="512.01508"
           sodipodi:role="line">(External)</tspan><tspan
           id="tspan1361"
           y="808.72650"
           x="512.01508"
           sodipodi:role="line" /></text>
      <text
         transform="scale(0.924327,1.081868)"
         sodipodi:linespacing="125.00000%"
         id="text6450"
         y="467.53531"
         x="384.20596"
         style="font-size:19.999954px;font-style:normal;font-variant:normal;font-weight:normal;font-stretch:normal;text-align:center;line-height:125.00000%;writing-mode:lr-tb;text-anchor:middle;fill:#000000;fill-opacity:1.0000000;stroke:none;stroke-width:1.0000000px;stroke-linecap:butt;stroke-linejoin:miter;stroke-opacity:1.0000000;font-family:Monospace"
         xml:space="preserve"><tspan
           id="tspan6454"
           y="467.53531"
           x="384.20596"
           sodipodi:role="line">KnowledgeForge</tspan></text>
      <text
         transform="scale(0.924327,1.081868)"
         sodipodi:linespacing="125.00000%"
         id="text1365"
         y="443.23938"
         x="614.95319"
         style="font-size:19.999960px;font-style:normal;font-variant:normal;font-weight:normal;font-stretch:normal;text-align:center;line-height:125.00000%;writing-mode:lr-tb;text-anchor:middle;fill:#000000;fill-opacity:1.0000000;stroke:none;stroke-width:1.0000000px;stroke-linecap:butt;stroke-linejoin:miter;stroke-opacity:1.0000000;font-family:Monospace"
         xml:space="preserve"><tspan
           id="tspan1373"
           y="443.23938"
           x="614.95319"
           sodipodi:role="line">Open Knowledge</tspan><tspan
           id="tspan1379"
           y="468.23933"
           x="614.95319"
           sodipodi:role="line">Registry</tspan><tspan
           id="tspan15546"
           y="493.23928"
           x="614.95319"
           sodipodi:role="line">(CKAN)</tspan></text>
    </g>
    <g
       id="g15953">
      <rect
         rx="32.611938"
         ry="32.611938"
         y="12.414429"
         x="158.03381"
         height="143.89551"
         width="89.441856"
         id="rect6780"
         style="fill:#6362a3;fill-opacity:1.0000000;stroke-linecap:round;stroke-linejoin:round" />
      <rect
         transform="scale(1.000000,-1.000000)"
         rx="32.611938"
         ry="32.611938"
         y="-381.37866"
         x="60.564274"
         height="98.708839"
         width="622.65289"
         id="rect1572"
         style="font-size:20.000000px;font-style:normal;font-variant:normal;font-weight:normal;font-stretch:normal;text-align:center;line-height:125.00000%;writing-mode:lr-tb;text-anchor:middle;fill:#6362a3;fill-opacity:1.0000000;stroke-linecap:round;stroke-linejoin:round;font-family:Monospace" />
      <text
         transform="scale(0.924327,1.081868)"
         sodipodi:linespacing="125.00000%"
         id="text1333"
         y="299.40872"
         x="398.77109"
         style="font-size:19.999989px;font-style:normal;font-variant:normal;font-weight:normal;font-stretch:normal;text-align:center;line-height:125.00000%;writing-mode:lr-tb;text-anchor:middle;fill:#000000;fill-opacity:1.0000000;stroke:none;stroke-width:1.0000000px;stroke-linecap:butt;stroke-linejoin:miter;stroke-opacity:1.0000000;font-family:Monospace"
         xml:space="preserve"><tspan
           id="tspan1337"
           y="299.40872"
           x="398.77109"
           sodipodi:role="line">Projects, Communities, and Tools</tspan><tspan
           id="tspan2858"
           y="324.40871"
           x="398.77109"
           sodipodi:role="line">Producing Open Knowledge</tspan></text>
      <rect
         rx="32.611938"
         ry="32.611938"
         y="11.406067"
         x="59.913006"
         height="143.89551"
         width="89.441856"
         id="rect2834"
         style="fill:#6362a3;fill-opacity:1.0000000;stroke-linecap:round;stroke-linejoin:round" />
      <text
         transform="scale(0.924327,1.081868)"
         sodipodi:linespacing="125.00000%"
         id="text2836"
         y="79.269691"
         x="116.52704"
         style="font-size:19.999941px;font-style:normal;font-variant:normal;font-weight:normal;font-stretch:normal;text-indent:0.0000000;text-align:center;text-decoration:none;line-height:125.00000%;letter-spacing:normal;word-spacing:normal;text-transform:none;direction:ltr;block-progression:tb;writing-mode:lr-tb;text-anchor:middle;opacity:1.0000000;color:#000000;fill:#000000;fill-opacity:1.0000000;fill-rule:nonzero;stroke:none;stroke-width:1.0000000px;stroke-linecap:butt;stroke-linejoin:miter;marker:none;marker-start:none;marker-mid:none;marker-end:none;stroke-miterlimit:4.0000000;stroke-dasharray:none;stroke-dashoffset:0.0000000;stroke-opacity:1.0000000;visibility:visible;display:inline;overflow:visible;font-family:Monospace"
         xml:space="preserve"><tspan
           id="tspan2840"
           y="79.269691"
           x="116.52704"
           sodipodi:role="line">Geodata</tspan></text>
      <text
         transform="scale(0.924327,1.081868)"
         sodipodi:linespacing="125.00000%"
         id="text2846"
         y="71.029106"
         x="221.04669"
         style="font-size:19.999901px;font-style:normal;font-variant:normal;font-weight:normal;font-stretch:normal;text-align:center;line-height:125.00000%;writing-mode:lr-tb;text-anchor:middle;fill:#000000;fill-opacity:1.0000000;stroke:none;stroke-width:1.0000000px;stroke-linecap:butt;stroke-linejoin:miter;stroke-opacity:1.0000000;font-family:Monospace"
         xml:space="preserve"><tspan
           id="tspan2848"
           y="71.029106"
           x="221.04669"
           sodipodi:role="line">Weather</tspan><tspan
           id="tspan6720"
           y="96.028982"
           x="221.04669"
           sodipodi:role="line">Data</tspan></text>
      <rect
         transform="scale(1.000000,-1.000000)"
         rx="32.611938"
         ry="32.611938"
         y="-266.71661"
         x="59.913006"
         height="98.708839"
         width="236.76462"
         id="rect4512"
         style="font-size:20.000000px;font-style:normal;font-variant:normal;font-weight:normal;font-stretch:normal;text-align:center;line-height:125.00000%;writing-mode:lr-tb;text-anchor:middle;fill:#6362a3;fill-opacity:1.0000000;stroke-linecap:round;stroke-linejoin:round;font-family:Monospace" />
      <text
         transform="scale(0.924327,1.081868)"
         sodipodi:linespacing="125.00000%"
         id="text4514"
         y="199.92502"
         x="192.10098"
         style="font-size:19.999971px;font-style:normal;font-variant:normal;font-weight:normal;font-stretch:normal;text-align:center;line-height:125.00000%;writing-mode:lr-tb;text-anchor:middle;fill:#000000;fill-opacity:1.0000000;stroke:none;stroke-width:1.0000000px;stroke-linecap:butt;stroke-linejoin:miter;stroke-opacity:1.0000000;font-family:Monospace"
         xml:space="preserve"><tspan
           id="tspan4518"
           y="199.92502"
           x="192.10098"
           sodipodi:role="line">&quot;Public Sector</tspan><tspan
           id="tspan4520"
           y="224.92498"
           x="192.10098"
           sodipodi:role="line">Information&quot;</tspan></text>
      <rect
         transform="scale(1.000000,-1.000000)"
         rx="32.611938"
         ry="32.611938"
         y="-266.71661"
         x="309.72253"
         height="98.708839"
         width="161.48195"
         id="rect4522"
         style="font-size:20.000000px;font-style:normal;font-variant:normal;font-weight:normal;font-stretch:normal;text-align:center;line-height:125.00000%;writing-mode:lr-tb;text-anchor:middle;fill:#6362a3;fill-opacity:1.0000000;stroke-linecap:round;stroke-linejoin:round;font-family:Monospace" />
      <text
         transform="scale(0.924327,1.081868)"
         sodipodi:linespacing="125.00000%"
         id="text4524"
         y="207.80339"
         x="422.78632"
         style="font-size:19.999983px;font-style:normal;font-variant:normal;font-weight:normal;font-stretch:normal;text-align:center;line-height:125.00000%;writing-mode:lr-tb;text-anchor:middle;fill:#000000;fill-opacity:1.0000000;stroke:none;stroke-width:1.0000000px;stroke-linecap:butt;stroke-linejoin:miter;stroke-opacity:1.0000000;font-family:Monospace"
         xml:space="preserve"><tspan
           id="tspan4528"
           y="207.80339"
           x="422.78631"
           sodipodi:role="line">Content</tspan></text>
      <rect
         transform="scale(1.000000,-1.000000)"
         rx="32.611938"
         ry="32.611938"
         y="-266.71661"
         x="485.24942"
         height="98.708839"
         width="197.96776"
         id="rect4530"
         style="font-size:20.000000px;font-style:normal;font-variant:normal;font-weight:normal;font-stretch:normal;text-align:center;line-height:125.00000%;writing-mode:lr-tb;text-anchor:middle;fill:#6362a3;fill-opacity:1.0000000;stroke-linecap:round;stroke-linejoin:round;font-family:Monospace" />
      <text
         transform="scale(0.924327,1.081868)"
         sodipodi:linespacing="125.00000%"
         id="text4532"
         y="207.80338"
         x="631.85333"
         style="font-size:19.999985px;font-style:normal;font-variant:normal;font-weight:normal;font-stretch:normal;text-align:center;line-height:125.00000%;writing-mode:lr-tb;text-anchor:middle;fill:#000000;fill-opacity:1.0000000;stroke:none;stroke-width:1.0000000px;stroke-linecap:butt;stroke-linejoin:miter;stroke-opacity:1.0000000;font-family:Monospace"
         xml:space="preserve"><tspan
           id="tspan4538"
           y="207.80338"
           x="631.85333"
           sodipodi:role="line">Scientific Data</tspan></text>
      <g
         transform="translate(10.75475,0.000000)"
         id="g15612">
        <rect
           style="font-size:20.000000px;font-style:normal;font-variant:normal;font-weight:normal;font-stretch:normal;text-align:center;line-height:125.00000%;writing-mode:lr-tb;text-anchor:middle;fill:#6362a3;fill-opacity:1.0000000;stroke-linecap:round;stroke-linejoin:round;font-family:Monospace"
           id="rect6730"
           width="40.664436"
           height="140.87224"
           x="304.66779"
           y="13.926064"
           ry="32.611938"
           rx="32.611938" />
        <text
           xml:space="preserve"
           style="font-size:19.999876px;font-style:normal;font-variant:normal;font-weight:normal;font-stretch:normal;text-align:center;line-height:125.00000%;writing-mode:lr-tb;text-anchor:middle;fill:#000000;fill-opacity:1.0000000;stroke:none;stroke-width:1.0000000px;stroke-linecap:butt;stroke-linejoin:miter;stroke-opacity:1.0000000;font-family:Monospace"
           x="91.7668"
           y="-293.64847"
           id="text6732"
           sodipodi:linespacing="125.00000%"
           transform="matrix(0.000000,0.924327,-1.081868,0.000000,0.000000,0.000000)"><tspan
             sodipodi:role="line"
             x="91.766800"
             y="-293.64847"
             id="tspan6736">Text</tspan></text>
      </g>
      <g
         transform="translate(16.75475,0.000000)"
         id="g15607">
        <rect
           style="font-size:20.000000px;font-style:normal;font-variant:normal;font-weight:normal;font-stretch:normal;text-align:center;line-height:125.00000%;writing-mode:lr-tb;text-anchor:middle;fill:#6362a3;fill-opacity:1.0000000;stroke-linecap:round;stroke-linejoin:round;font-family:Monospace"
           id="rect6738"
           width="40.664436"
           height="140.87224"
           x="355.54364"
           y="13.677801"
           ry="32.611938"
           rx="32.611938" />
        <text
           xml:space="preserve"
           style="font-size:19.999821px;font-style:normal;font-variant:normal;font-weight:normal;font-stretch:normal;text-align:center;line-height:125.00000%;writing-mode:lr-tb;text-anchor:middle;fill:#000000;fill-opacity:1.0000000;stroke:none;stroke-width:1.0000000px;stroke-linecap:butt;stroke-linejoin:miter;stroke-opacity:1.0000000;font-family:Monospace"
           x="91.205238"
           y="-340.55243"
           id="text6740"
           sodipodi:linespacing="125.00000%"
           transform="matrix(0.000000,0.924327,-1.081868,0.000000,0.000000,0.000000)"><tspan
             sodipodi:role="line"
             x="91.205238"
             y="-340.55243"
             id="tspan6742">Music</tspan></text>
      </g>
      <g
         transform="translate(20.75475,0.000000)"
         id="g15602">
        <rect
           style="font-size:20.000000px;font-style:normal;font-variant:normal;font-weight:normal;font-stretch:normal;text-align:center;line-height:125.00000%;writing-mode:lr-tb;text-anchor:middle;fill:#6362a3;fill-opacity:1.0000000;stroke-linecap:round;stroke-linejoin:round;font-family:Monospace"
           id="rect6744"
           width="40.664436"
           height="140.87224"
           x="407.66779"
           y="13.926064"
           ry="32.611938"
           rx="32.611938" />
        <text
           xml:space="preserve"
           style="font-size:19.999868px;font-style:normal;font-variant:normal;font-weight:normal;font-stretch:normal;text-align:center;line-height:125.00000%;writing-mode:lr-tb;text-anchor:middle;fill:#000000;fill-opacity:1.0000000;stroke:none;stroke-width:1.0000000px;stroke-linecap:butt;stroke-linejoin:miter;stroke-opacity:1.0000000;font-family:Monospace"
           x="90.643761"
           y="-388.60022"
           id="text6746"
           sodipodi:linespacing="125.00000%"
           transform="matrix(0.000000,0.924327,-1.081868,0.000000,0.000000,0.000000)"><tspan
             sodipodi:role="line"
             x="90.643760"
             y="-388.60022"
             id="tspan6748">Film</tspan></text>
      </g>
      <g
         transform="translate(12.75475,0.000000)"
         id="g15632">
        <rect
           style="font-size:20.000000px;font-style:normal;font-variant:normal;font-weight:normal;font-stretch:normal;text-align:center;line-height:125.00000%;writing-mode:lr-tb;text-anchor:middle;fill:#6362a3;fill-opacity:1.0000000;stroke-linecap:round;stroke-linejoin:round;font-family:Monospace"
           id="rect6750"
           width="40.664436"
           height="140.87224"
           x="527.66779"
           y="13.926064"
           ry="32.611938"
           rx="32.611938" />
        <text
           xml:space="preserve"
           style="font-size:19.999582px;font-style:normal;font-variant:normal;font-weight:normal;font-stretch:normal;text-align:center;line-height:125.00000%;writing-mode:lr-tb;text-anchor:middle;fill:#000000;fill-opacity:1.0000000;stroke:none;stroke-width:1.0000000px;stroke-linecap:butt;stroke-linejoin:miter;stroke-opacity:1.0000000;font-family:Monospace"
           x="92.045082"
           y="-499.64175"
           id="text6752"
           sodipodi:linespacing="125.00000%"
           transform="matrix(0.000000,0.924327,-1.081868,0.000000,0.000000,0.000000)"><tspan
             sodipodi:role="line"
             x="92.045081"
             y="-499.64175"
             id="tspan6754">Chemical</tspan></text>
      </g>
      <g
         transform="translate(12.75475,0.000000)"
         id="g15637">
        <rect
           style="font-size:20.000000px;font-style:normal;font-variant:normal;font-weight:normal;font-stretch:normal;text-align:center;line-height:125.00000%;writing-mode:lr-tb;text-anchor:middle;fill:#6362a3;fill-opacity:1.0000000;stroke-linecap:round;stroke-linejoin:round;font-family:Monospace"
           id="rect6756"
           width="40.664436"
           height="140.87224"
           x="630.66779"
           y="13.926056"
           ry="32.611938"
           rx="32.611938" />
        <text
           xml:space="preserve"
           style="font-size:19.999628px;font-style:normal;font-variant:normal;font-weight:normal;font-stretch:normal;text-align:center;line-height:125.00000%;writing-mode:lr-tb;text-anchor:middle;fill:#000000;fill-opacity:1.0000000;stroke:none;stroke-width:1.0000000px;stroke-linecap:butt;stroke-linejoin:miter;stroke-opacity:1.0000000;font-family:Monospace"
           x="91.317574"
           y="-600.75049"
           id="text6758"
           sodipodi:linespacing="125.00000%"
           transform="matrix(0.000000,0.924327,-1.081868,0.000000,0.000000,0.000000)"><tspan
             sodipodi:role="line"
             x="91.317574"
             y="-600.75049"
             id="tspan6760">.....</tspan></text>
      </g>
      <g
         transform="translate(12.75475,0.000000)"
         id="g15627">
        <rect
           style="font-size:20.000000px;font-style:normal;font-variant:normal;font-weight:normal;font-stretch:normal;text-align:center;line-height:125.00000%;writing-mode:lr-tb;text-anchor:middle;fill:#6362a3;fill-opacity:1.0000000;stroke-linecap:round;stroke-linejoin:round;font-family:Monospace"
           id="rect6762"
           width="40.664436"
           height="140.87224"
           x="476.66779"
           y="13.926056"
           ry="32.611938"
           rx="32.611938" />
        <text
           xml:space="preserve"
           style="font-size:19.999660px;font-style:normal;font-variant:normal;font-weight:normal;font-stretch:normal;text-align:center;line-height:125.00000%;writing-mode:lr-tb;text-anchor:middle;fill:#000000;fill-opacity:1.0000000;stroke:none;stroke-width:1.0000000px;stroke-linecap:butt;stroke-linejoin:miter;stroke-opacity:1.0000000;font-family:Monospace"
           x="91.063675"
           y="-452.51071"
           id="text6764"
           sodipodi:linespacing="125.00000%"
           transform="matrix(0.000000,0.924327,-1.081868,0.000000,0.000000,0.000000)"><tspan
             sodipodi:role="line"
             x="91.063677"
             y="-452.51071"
             id="tspan6766">Economic</tspan></text>
      </g>
      <g
         id="g15948">
        <rect
           style="font-size:20.000000px;font-style:normal;font-variant:normal;font-weight:normal;font-stretch:normal;text-align:center;line-height:125.00000%;writing-mode:lr-tb;text-anchor:middle;fill:#6362a3;fill-opacity:1.0000000;stroke-linecap:round;stroke-linejoin:round;font-family:Monospace"
           id="rect6768"
           width="40.664436"
           height="140.87224"
           x="591.42255"
           y="14.926056"
           ry="32.611938"
           rx="32.611938" />
        <text
           xml:space="preserve"
           style="font-size:19.999588px;font-style:normal;font-variant:normal;font-weight:normal;font-stretch:normal;text-align:center;line-height:125.00000%;writing-mode:lr-tb;text-anchor:middle;fill:#000000;fill-opacity:1.0000000;stroke:none;stroke-width:1.0000000px;stroke-linecap:butt;stroke-linejoin:miter;stroke-opacity:1.0000000;font-family:Monospace"
           x="92.126007"
           y="-560.46143"
           id="text6770"
           sodipodi:linespacing="125.00000%"
           transform="matrix(0.000000,0.924327,-1.081868,0.000000,0.000000,0.000000)"><tspan
             sodipodi:role="line"
             x="92.126006"
             y="-560.46143"
             id="tspan6772">Biological</tspan></text>
      </g>
      <g
         transform="translate(16.75475,0.000000)"
         id="g15617">
        <rect
           style="font-size:20.000000px;font-style:normal;font-variant:normal;font-weight:normal;font-stretch:normal;text-align:center;line-height:125.00000%;writing-mode:lr-tb;text-anchor:middle;fill:#6362a3;fill-opacity:1.0000000;stroke-linecap:round;stroke-linejoin:round;font-family:Monospace"
           id="rect6774"
           width="40.664436"
           height="140.87224"
           x="239.66779"
           y="12.926056"
           ry="32.611938"
           rx="32.611938" />
        <text
           xml:space="preserve"
           style="font-size:19.999609px;font-style:normal;font-variant:normal;font-weight:normal;font-stretch:normal;text-align:center;line-height:125.00000%;writing-mode:lr-tb;text-anchor:middle;fill:#000000;fill-opacity:1.0000000;stroke:none;stroke-width:1.0000000px;stroke-linecap:butt;stroke-linejoin:miter;stroke-opacity:1.0000000;font-family:Monospace"
           x="90.235703"
           y="-239.33871"
           id="text6776"
           sodipodi:linespacing="125.00000%"
           transform="matrix(0.000000,0.924327,-1.081868,0.000000,0.000000,0.000000)"><tspan
             sodipodi:role="line"
             x="90.235701"
             y="-239.33871"
             id="tspan6778">.....</tspan></text>
      </g>
    </g>
    <text
       id="text15699"
       y="1547.2957"
       x="373.30881"
       style="font-size:12.000000px;font-style:normal;font-weight:normal;fill:#000000;fill-opacity:1.0000000;stroke:none;stroke-width:1.0000000px;stroke-linecap:butt;stroke-linejoin:miter;stroke-opacity:1.0000000;font-family:Bitstream Vera Sans"
       xml:space="preserve"><tspan
         y="1547.2957"
         x="373.30881"
         id="tspan15701"
         sodipodi:role="line" /></text>
    <rect
       ry="17.775148"
       rx="17.775148"
       y="1316.8358"
       x="131.91193"
       height="315.63321"
       width="360.30902"
       id="rect16180"
       style="opacity:1.0000000;color:#000000;fill:none;fill-opacity:1.0000000;fill-rule:nonzero;stroke:#000000;stroke-width:6.5622525;stroke-linecap:butt;stroke-linejoin:miter;marker:none;marker-start:none;marker-mid:none;marker-end:none;stroke-miterlimit:4.0000000;stroke-dasharray:none;stroke-dashoffset:0.0000000;stroke-opacity:1.0000000;visibility:visible;display:inline;overflow:visible"
       inkscape:export-filename="/Users/rgrp/svnroot/okf/scratchpad/roadmap/okf_stack.png"
       inkscape:export-xdpi="90.000000"
       inkscape:export-ydpi="90.000000" />
    <g
       transform="matrix(0.545050,0.000000,0.000000,0.545050,117.8479,1098.532)"
       id="g16182"
       inkscape:export-filename="/Users/rgrp/svnroot/okf/scratchpad/roadmap/okf_stack.png"
       inkscape:export-xdpi="90.000000"
       inkscape:export-ydpi="90.000000">
      <rect
         style="font-size:20.000000px;font-style:normal;font-variant:normal;font-weight:normal;font-stretch:normal;text-align:center;line-height:125.00000%;writing-mode:lr-tb;text-anchor:middle;fill:#6362a3;fill-opacity:1.0000000;stroke-linecap:round;stroke-linejoin:round;font-family:Monospace"
         id="rect16184"
         width="190.05000"
         height="153.89551"
         x="473.15826"
         y="423.58749"
         ry="32.611938"
         rx="32.611938" />
      <rect
         rx="32.611938"
         ry="32.611938"
         y="423.58749"
         x="47.158257"
         height="153.89551"
         width="190.05000"
         id="rect16186"
         style="font-size:20.000000px;font-style:normal;font-variant:normal;font-weight:normal;font-stretch:normal;text-align:center;line-height:125.00000%;writing-mode:lr-tb;text-anchor:middle;fill:#6362a3;fill-opacity:1.0000000;stroke-linecap:round;stroke-linejoin:round;font-family:Monospace" />
      <rect
         style="font-size:20.000000px;font-style:normal;font-variant:normal;font-weight:normal;font-stretch:normal;text-align:center;line-height:125.00000%;writing-mode:lr-tb;text-anchor:middle;fill:#6362a3;fill-opacity:1.0000000;stroke-linecap:round;stroke-linejoin:round;font-family:Monospace"
         id="rect16188"
         width="296.62991"
         height="194.67566"
         x="47.158257"
         y="644.85901"
         ry="32.611938"
         rx="32.611938" />
      <rect
         style="font-size:20.000000px;font-style:normal;font-variant:normal;font-weight:normal;font-stretch:normal;text-align:center;line-height:125.00000%;writing-mode:lr-tb;text-anchor:middle;fill:#60936b;fill-opacity:1.0000000;stroke-linecap:round;stroke-linejoin:round;font-family:Monospace"
         id="rect16190"
         width="618.34442"
         height="104.10735"
         x="47.158257"
         y="852.43335"
         ry="32.611938"
         rx="32.611938" />
      <text
         xml:space="preserve"
         style="font-size:19.999981px;font-style:normal;font-variant:normal;font-weight:normal;font-stretch:normal;text-align:center;line-height:125.00000%;writing-mode:lr-tb;text-anchor:middle;fill:#000000;fill-opacity:1.0000000;stroke:none;stroke-width:1.0000000px;stroke-linecap:butt;stroke-linejoin:miter;stroke-opacity:1.0000000;font-family:Monospace"
         x="386.02991"
         y="830.43146"
         id="text16192"
         sodipodi:linespacing="125.00000%"
         transform="scale(0.924327,1.081868)"><tspan
           sodipodi:role="line"
           id="tspan16194"
           x="386.02991"
           y="830.43146">OPEN KNOWLEDGE</tspan><tspan
           sodipodi:role="line"
           x="386.02991"
           y="855.43143"
           id="tspan16196">DEFINITION</tspan></text>
      <rect
         style="font-size:20.000000px;font-style:normal;font-variant:normal;font-weight:normal;font-stretch:normal;text-align:center;line-height:125.00000%;writing-mode:lr-tb;text-anchor:middle;fill:#6362a3;fill-opacity:1.0000000;stroke-linecap:round;stroke-linejoin:round;font-family:Monospace"
         id="rect16198"
         width="190.05000"
         height="153.89551"
         x="260.15826"
         y="423.58749"
         ry="32.611938"
         rx="32.611938" />
      <text
         xml:space="preserve"
         style="font-size:19.999981px;font-style:normal;font-variant:normal;font-weight:normal;font-stretch:normal;text-align:center;line-height:125.00000%;writing-mode:lr-tb;text-anchor:middle;fill:#000000;fill-opacity:1.0000000;stroke:none;stroke-width:1.0000000px;stroke-linecap:butt;stroke-linejoin:miter;stroke-opacity:1.0000000;font-family:Monospace"
         x="211.47623"
         y="653.53265"
         id="text16200"
         sodipodi:linespacing="125.00000%"
         transform="scale(0.924327,1.081868)"><tspan
           sodipodi:role="line"
           x="211.47623"
           y="653.53265"
           id="tspan16202">Information</tspan><tspan
           sodipodi:role="line"
           x="211.47622"
           y="678.53263"
           id="tspan16204">Accessibility</tspan><tspan
           sodipodi:role="line"
           x="211.47623"
           y="703.53261"
           id="tspan16206">Initiative</tspan><tspan
           sodipodi:role="line"
           x="211.47623"
           y="728.53258"
           id="tspan16208">(Open Formats)</tspan></text>
      <text
         xml:space="preserve"
         style="font-size:19.999977px;font-style:normal;font-variant:normal;font-weight:normal;font-stretch:normal;text-indent:0.0000000;text-align:center;text-decoration:none;line-height:125.00000%;letter-spacing:normal;word-spacing:normal;text-transform:none;direction:ltr;block-progression:tb;writing-mode:lr-tb;text-anchor:middle;opacity:1.0000000;color:#000000;fill:#000000;fill-opacity:1.0000000;fill-rule:nonzero;stroke:none;stroke-width:1.0000000px;stroke-linecap:butt;stroke-linejoin:miter;marker:none;marker-start:none;marker-mid:none;marker-end:none;stroke-miterlimit:4.0000000;stroke-dasharray:none;stroke-dashoffset:0.0000000;stroke-opacity:1.0000000;visibility:visible;display:inline;overflow:visible;font-family:Monospace"
         x="153.73074"
         y="455.16806"
         id="text16210"
         sodipodi:linespacing="125.00000%"
         transform="scale(0.924327,1.081868)"><tspan
           sodipodi:role="line"
           x="153.73074"
           y="455.16806"
           id="tspan16212">OKF Network</tspan><tspan
           sodipodi:role="line"
           x="153.73074"
           y="480.16803"
           id="tspan16214">(Community)</tspan></text>
      <rect
         style="font-size:20.000000px;font-style:normal;font-variant:normal;font-weight:normal;font-stretch:normal;text-align:center;line-height:125.00000%;writing-mode:lr-tb;text-anchor:middle;fill:#6362a3;fill-opacity:1.0000000;stroke-linecap:round;stroke-linejoin:round;font-family:Monospace"
         id="rect16216"
         width="617.28101"
         height="40.708839"
         x="47.158257"
         y="-629.27637"
         ry="32.611938"
         rx="32.611938"
         transform="scale(1.000000,-1.000000)" />
      <rect
         style="font-size:20.000000px;font-style:normal;font-variant:normal;font-weight:normal;font-stretch:normal;text-align:center;line-height:125.00000%;writing-mode:lr-tb;text-anchor:middle;fill:#6362a3;fill-opacity:1.0000000;stroke-linecap:round;stroke-linejoin:round;font-family:Monospace"
         id="rect16218"
         width="301.46301"
         height="194.67566"
         x="359.44031"
         y="645.98358"
         ry="32.611938"
         rx="32.611938" />
      <text
         xml:space="preserve"
         style="font-size:20.000000px;font-style:normal;font-variant:normal;font-weight:normal;font-stretch:normal;text-align:center;line-height:125.00000%;writing-mode:lr-tb;text-anchor:middle;fill:#000000;fill-opacity:1.0000000;stroke:none;stroke-width:1.0000000px;stroke-linecap:butt;stroke-linejoin:miter;stroke-opacity:1.0000000;font-family:Monospace"
         x="512.01508"
         y="708.7265"
         id="text16220"
         sodipodi:linespacing="125.00000%"
         transform="scale(0.996400,1.003613)"><tspan
           sodipodi:role="line"
           x="512.01508"
           y="708.72650"
           id="tspan16222">Open</tspan><tspan
           sodipodi:role="line"
           x="512.01508"
           y="733.72650"
           id="tspan16224">Knowledge</tspan><tspan
           sodipodi:role="line"
           x="512.01508"
           y="758.72650"
           id="tspan16226">Licenses</tspan><tspan
           sodipodi:role="line"
           x="512.01508"
           y="783.72650"
           id="tspan16228">(External)</tspan><tspan
           sodipodi:role="line"
           x="512.01508"
           y="808.72650"
           id="tspan16230" /></text>
      <text
         xml:space="preserve"
         style="font-size:19.999954px;font-style:normal;font-variant:normal;font-weight:normal;font-stretch:normal;text-align:center;line-height:125.00000%;writing-mode:lr-tb;text-anchor:middle;fill:#000000;fill-opacity:1.0000000;stroke:none;stroke-width:1.0000000px;stroke-linecap:butt;stroke-linejoin:miter;stroke-opacity:1.0000000;font-family:Monospace"
         x="384.20596"
         y="467.53531"
         id="text16232"
         sodipodi:linespacing="125.00000%"
         transform="scale(0.924327,1.081868)"><tspan
           sodipodi:role="line"
           x="384.20596"
           y="467.53531"
           id="tspan16234">KnowledgeForge</tspan></text>
      <text
         xml:space="preserve"
         style="font-size:19.999960px;font-style:normal;font-variant:normal;font-weight:normal;font-stretch:normal;text-align:center;line-height:125.00000%;writing-mode:lr-tb;text-anchor:middle;fill:#000000;fill-opacity:1.0000000;stroke:none;stroke-width:1.0000000px;stroke-linecap:butt;stroke-linejoin:miter;stroke-opacity:1.0000000;font-family:Monospace"
         x="614.95319"
         y="443.23938"
         id="text16236"
         sodipodi:linespacing="125.00000%"
         transform="scale(0.924327,1.081868)"><tspan
           sodipodi:role="line"
           x="614.95319"
           y="443.23938"
           id="tspan16238">Open Knowledge</tspan><tspan
           sodipodi:role="line"
           x="614.95319"
           y="468.23933"
           id="tspan16240">Registry</tspan><tspan
           sodipodi:role="line"
           x="614.95319"
           y="493.23928"
           id="tspan16242">(CKAN)</tspan></text>
    </g>
    <g
       id="g16244"
       transform="matrix(0.545050,0.000000,0.000000,0.545050,109.3073,1096.189)"
       inkscape:export-xdpi="90.000000"
       inkscape:export-ydpi="90.000000"
       inkscape:export-filename="/Users/rgrp/svnroot/okf/scratchpad/roadmap/okf_stack.png">
      <rect
         style="fill:#6362a3;fill-opacity:1.0000000;stroke-linecap:round;stroke-linejoin:round"
         id="rect16246"
         width="89.441856"
         height="143.89551"
         x="158.03381"
         y="12.414429"
         ry="32.611938"
         rx="32.611938" />
      <rect
         style="font-size:20.000000px;font-style:normal;font-variant:normal;font-weight:normal;font-stretch:normal;text-align:center;line-height:125.00000%;writing-mode:lr-tb;text-anchor:middle;fill:#6362a3;fill-opacity:1.0000000;stroke-linecap:round;stroke-linejoin:round;font-family:Monospace"
         id="rect16248"
         width="622.65289"
         height="98.708839"
         x="60.564274"
         y="-381.37866"
         ry="32.611938"
         rx="32.611938"
         transform="scale(1.000000,-1.000000)" />
      <text
         xml:space="preserve"
         style="font-size:19.999989px;font-style:normal;font-variant:normal;font-weight:normal;font-stretch:normal;text-align:center;line-height:125.00000%;writing-mode:lr-tb;text-anchor:middle;fill:#000000;fill-opacity:1.0000000;stroke:none;stroke-width:1.0000000px;stroke-linecap:butt;stroke-linejoin:miter;stroke-opacity:1.0000000;font-family:Monospace"
         x="398.77109"
         y="299.40872"
         id="text16250"
         sodipodi:linespacing="125.00000%"
         transform="scale(0.924327,1.081868)"><tspan
           sodipodi:role="line"
           x="398.77109"
           y="299.40872"
           id="tspan16252">Projects, Communities, and Tools</tspan><tspan
           sodipodi:role="line"
           x="398.77109"
           y="324.40871"
           id="tspan16254">Producing Open Knowledge</tspan></text>
      <rect
         style="fill:#6362a3;fill-opacity:1.0000000;stroke-linecap:round;stroke-linejoin:round"
         id="rect16256"
         width="89.441856"
         height="143.89551"
         x="59.913006"
         y="11.406067"
         ry="32.611938"
         rx="32.611938" />
      <text
         xml:space="preserve"
         style="font-size:19.999941px;font-style:normal;font-variant:normal;font-weight:normal;font-stretch:normal;text-indent:0.0000000;text-align:center;text-decoration:none;line-height:125.00000%;letter-spacing:normal;word-spacing:normal;text-transform:none;direction:ltr;block-progression:tb;writing-mode:lr-tb;text-anchor:middle;opacity:1.0000000;color:#000000;fill:#000000;fill-opacity:1.0000000;fill-rule:nonzero;stroke:none;stroke-width:1.0000000px;stroke-linecap:butt;stroke-linejoin:miter;marker:none;marker-start:none;marker-mid:none;marker-end:none;stroke-miterlimit:4.0000000;stroke-dasharray:none;stroke-dashoffset:0.0000000;stroke-opacity:1.0000000;visibility:visible;display:inline;overflow:visible;font-family:Monospace"
         x="116.52704"
         y="79.269691"
         id="text16258"
         sodipodi:linespacing="125.00000%"
         transform="scale(0.924327,1.081868)"><tspan
           sodipodi:role="line"
           x="116.52704"
           y="79.269691"
           id="tspan16260">Geodata</tspan></text>
      <text
         xml:space="preserve"
         style="font-size:19.999901px;font-style:normal;font-variant:normal;font-weight:normal;font-stretch:normal;text-align:center;line-height:125.00000%;writing-mode:lr-tb;text-anchor:middle;fill:#000000;fill-opacity:1.0000000;stroke:none;stroke-width:1.0000000px;stroke-linecap:butt;stroke-linejoin:miter;stroke-opacity:1.0000000;font-family:Monospace"
         x="221.04669"
         y="71.029106"
         id="text16262"
         sodipodi:linespacing="125.00000%"
         transform="scale(0.924327,1.081868)"><tspan
           sodipodi:role="line"
           x="221.04669"
           y="71.029106"
           id="tspan16264">Weather</tspan><tspan
           sodipodi:role="line"
           x="221.04669"
           y="96.028982"
           id="tspan16266">Data</tspan></text>
      <rect
         style="font-size:20.000000px;font-style:normal;font-variant:normal;font-weight:normal;font-stretch:normal;text-align:center;line-height:125.00000%;writing-mode:lr-tb;text-anchor:middle;fill:#6362a3;fill-opacity:1.0000000;stroke-linecap:round;stroke-linejoin:round;font-family:Monospace"
         id="rect16268"
         width="236.76462"
         height="98.708839"
         x="59.913006"
         y="-266.71661"
         ry="32.611938"
         rx="32.611938"
         transform="scale(1.000000,-1.000000)" />
      <text
         xml:space="preserve"
         style="font-size:19.999971px;font-style:normal;font-variant:normal;font-weight:normal;font-stretch:normal;text-align:center;line-height:125.00000%;writing-mode:lr-tb;text-anchor:middle;fill:#000000;fill-opacity:1.0000000;stroke:none;stroke-width:1.0000000px;stroke-linecap:butt;stroke-linejoin:miter;stroke-opacity:1.0000000;font-family:Monospace"
         x="192.10098"
         y="199.92502"
         id="text16270"
         sodipodi:linespacing="125.00000%"
         transform="scale(0.924327,1.081868)"><tspan
           sodipodi:role="line"
           x="192.10098"
           y="199.92502"
           id="tspan16272">&quot;Public Sector</tspan><tspan
           sodipodi:role="line"
           x="192.10098"
           y="224.92498"
           id="tspan16274">Information&quot;</tspan></text>
      <rect
         style="font-size:20.000000px;font-style:normal;font-variant:normal;font-weight:normal;font-stretch:normal;text-align:center;line-height:125.00000%;writing-mode:lr-tb;text-anchor:middle;fill:#6362a3;fill-opacity:1.0000000;stroke-linecap:round;stroke-linejoin:round;font-family:Monospace"
         id="rect16276"
         width="161.48195"
         height="98.708839"
         x="309.72253"
         y="-266.71661"
         ry="32.611938"
         rx="32.611938"
         transform="scale(1.000000,-1.000000)" />
      <text
         xml:space="preserve"
         style="font-size:19.999983px;font-style:normal;font-variant:normal;font-weight:normal;font-stretch:normal;text-align:center;line-height:125.00000%;writing-mode:lr-tb;text-anchor:middle;fill:#000000;fill-opacity:1.0000000;stroke:none;stroke-width:1.0000000px;stroke-linecap:butt;stroke-linejoin:miter;stroke-opacity:1.0000000;font-family:Monospace"
         x="422.78632"
         y="207.80339"
         id="text16278"
         sodipodi:linespacing="125.00000%"
         transform="scale(0.924327,1.081868)"><tspan
           sodipodi:role="line"
           x="422.78631"
           y="207.80339"
           id="tspan16280">Content</tspan></text>
      <rect
         style="font-size:20.000000px;font-style:normal;font-variant:normal;font-weight:normal;font-stretch:normal;text-align:center;line-height:125.00000%;writing-mode:lr-tb;text-anchor:middle;fill:#6362a3;fill-opacity:1.0000000;stroke-linecap:round;stroke-linejoin:round;font-family:Monospace"
         id="rect16282"
         width="197.96776"
         height="98.708839"
         x="485.24942"
         y="-266.71661"
         ry="32.611938"
         rx="32.611938"
         transform="scale(1.000000,-1.000000)" />
      <text
         xml:space="preserve"
         style="font-size:19.999985px;font-style:normal;font-variant:normal;font-weight:normal;font-stretch:normal;text-align:center;line-height:125.00000%;writing-mode:lr-tb;text-anchor:middle;fill:#000000;fill-opacity:1.0000000;stroke:none;stroke-width:1.0000000px;stroke-linecap:butt;stroke-linejoin:miter;stroke-opacity:1.0000000;font-family:Monospace"
         x="631.85333"
         y="207.80338"
         id="text16284"
         sodipodi:linespacing="125.00000%"
         transform="scale(0.924327,1.081868)"><tspan
           sodipodi:role="line"
           x="631.85333"
           y="207.80338"
           id="tspan16286">Scientific Data</tspan></text>
      <g
         id="g16288"
         transform="translate(10.75475,0.000000)">
        <rect
           rx="32.611938"
           ry="32.611938"
           y="13.926064"
           x="304.66779"
           height="140.87224"
           width="40.664436"
           id="rect16290"
           style="font-size:20.000000px;font-style:normal;font-variant:normal;font-weight:normal;font-stretch:normal;text-align:center;line-height:125.00000%;writing-mode:lr-tb;text-anchor:middle;fill:#6362a3;fill-opacity:1.0000000;stroke-linecap:round;stroke-linejoin:round;font-family:Monospace" />
        <text
           transform="matrix(0.000000,0.924327,-1.081868,0.000000,0.000000,0.000000)"
           sodipodi:linespacing="125.00000%"
           id="text16292"
           y="-293.64847"
           x="91.7668"
           style="font-size:19.999876px;font-style:normal;font-variant:normal;font-weight:normal;font-stretch:normal;text-align:center;line-height:125.00000%;writing-mode:lr-tb;text-anchor:middle;fill:#000000;fill-opacity:1.0000000;stroke:none;stroke-width:1.0000000px;stroke-linecap:butt;stroke-linejoin:miter;stroke-opacity:1.0000000;font-family:Monospace"
           xml:space="preserve"><tspan
             id="tspan16294"
             y="-293.64847"
             x="91.766800"
             sodipodi:role="line">Text</tspan></text>
      </g>
      <g
         id="g16296"
         transform="translate(16.75475,0.000000)">
        <rect
           rx="32.611938"
           ry="32.611938"
           y="13.677801"
           x="355.54364"
           height="140.87224"
           width="40.664436"
           id="rect16298"
           style="font-size:20.000000px;font-style:normal;font-variant:normal;font-weight:normal;font-stretch:normal;text-align:center;line-height:125.00000%;writing-mode:lr-tb;text-anchor:middle;fill:#6362a3;fill-opacity:1.0000000;stroke-linecap:round;stroke-linejoin:round;font-family:Monospace" />
        <text
           transform="matrix(0.000000,0.924327,-1.081868,0.000000,0.000000,0.000000)"
           sodipodi:linespacing="125.00000%"
           id="text16300"
           y="-340.55243"
           x="91.205238"
           style="font-size:19.999821px;font-style:normal;font-variant:normal;font-weight:normal;font-stretch:normal;text-align:center;line-height:125.00000%;writing-mode:lr-tb;text-anchor:middle;fill:#000000;fill-opacity:1.0000000;stroke:none;stroke-width:1.0000000px;stroke-linecap:butt;stroke-linejoin:miter;stroke-opacity:1.0000000;font-family:Monospace"
           xml:space="preserve"><tspan
             id="tspan16302"
             y="-340.55243"
             x="91.205238"
             sodipodi:role="line">Music</tspan></text>
      </g>
      <g
         id="g16304"
         transform="translate(20.75475,0.000000)">
        <rect
           rx="32.611938"
           ry="32.611938"
           y="13.926064"
           x="407.66779"
           height="140.87224"
           width="40.664436"
           id="rect16306"
           style="font-size:20.000000px;font-style:normal;font-variant:normal;font-weight:normal;font-stretch:normal;text-align:center;line-height:125.00000%;writing-mode:lr-tb;text-anchor:middle;fill:#6362a3;fill-opacity:1.0000000;stroke-linecap:round;stroke-linejoin:round;font-family:Monospace" />
        <text
           transform="matrix(0.000000,0.924327,-1.081868,0.000000,0.000000,0.000000)"
           sodipodi:linespacing="125.00000%"
           id="text16308"
           y="-388.60022"
           x="90.643761"
           style="font-size:19.999868px;font-style:normal;font-variant:normal;font-weight:normal;font-stretch:normal;text-align:center;line-height:125.00000%;writing-mode:lr-tb;text-anchor:middle;fill:#000000;fill-opacity:1.0000000;stroke:none;stroke-width:1.0000000px;stroke-linecap:butt;stroke-linejoin:miter;stroke-opacity:1.0000000;font-family:Monospace"
           xml:space="preserve"><tspan
             id="tspan16310"
             y="-388.60022"
             x="90.643760"
             sodipodi:role="line">Film</tspan></text>
      </g>
      <g
         id="g16312"
         transform="translate(12.75475,0.000000)">
        <rect
           rx="32.611938"
           ry="32.611938"
           y="13.926064"
           x="527.66779"
           height="140.87224"
           width="40.664436"
           id="rect16314"
           style="font-size:20.000000px;font-style:normal;font-variant:normal;font-weight:normal;font-stretch:normal;text-align:center;line-height:125.00000%;writing-mode:lr-tb;text-anchor:middle;fill:#6362a3;fill-opacity:1.0000000;stroke-linecap:round;stroke-linejoin:round;font-family:Monospace" />
        <text
           transform="matrix(0.000000,0.924327,-1.081868,0.000000,0.000000,0.000000)"
           sodipodi:linespacing="125.00000%"
           id="text16316"
           y="-499.64175"
           x="92.045082"
           style="font-size:19.999582px;font-style:normal;font-variant:normal;font-weight:normal;font-stretch:normal;text-align:center;line-height:125.00000%;writing-mode:lr-tb;text-anchor:middle;fill:#000000;fill-opacity:1.0000000;stroke:none;stroke-width:1.0000000px;stroke-linecap:butt;stroke-linejoin:miter;stroke-opacity:1.0000000;font-family:Monospace"
           xml:space="preserve"><tspan
             id="tspan16318"
             y="-499.64175"
             x="92.045081"
             sodipodi:role="line">Chemical</tspan></text>
      </g>
      <g
         id="g16320"
         transform="translate(12.75475,0.000000)">
        <rect
           rx="32.611938"
           ry="32.611938"
           y="13.926056"
           x="630.66779"
           height="140.87224"
           width="40.664436"
           id="rect16322"
           style="font-size:20.000000px;font-style:normal;font-variant:normal;font-weight:normal;font-stretch:normal;text-align:center;line-height:125.00000%;writing-mode:lr-tb;text-anchor:middle;fill:#6362a3;fill-opacity:1.0000000;stroke-linecap:round;stroke-linejoin:round;font-family:Monospace" />
        <text
           transform="matrix(0.000000,0.924327,-1.081868,0.000000,0.000000,0.000000)"
           sodipodi:linespacing="125.00000%"
           id="text16324"
           y="-600.75049"
           x="91.317574"
           style="font-size:19.999628px;font-style:normal;font-variant:normal;font-weight:normal;font-stretch:normal;text-align:center;line-height:125.00000%;writing-mode:lr-tb;text-anchor:middle;fill:#000000;fill-opacity:1.0000000;stroke:none;stroke-width:1.0000000px;stroke-linecap:butt;stroke-linejoin:miter;stroke-opacity:1.0000000;font-family:Monospace"
           xml:space="preserve"><tspan
             id="tspan16326"
             y="-600.75049"
             x="91.317574"
             sodipodi:role="line">.....</tspan></text>
      </g>
      <g
         id="g16328"
         transform="translate(12.75475,0.000000)">
        <rect
           rx="32.611938"
           ry="32.611938"
           y="13.926056"
           x="476.66779"
           height="140.87224"
           width="40.664436"
           id="rect16330"
           style="font-size:20.000000px;font-style:normal;font-variant:normal;font-weight:normal;font-stretch:normal;text-align:center;line-height:125.00000%;writing-mode:lr-tb;text-anchor:middle;fill:#6362a3;fill-opacity:1.0000000;stroke-linecap:round;stroke-linejoin:round;font-family:Monospace" />
        <text
           transform="matrix(0.000000,0.924327,-1.081868,0.000000,0.000000,0.000000)"
           sodipodi:linespacing="125.00000%"
           id="text16332"
           y="-452.51071"
           x="91.063675"
           style="font-size:19.999660px;font-style:normal;font-variant:normal;font-weight:normal;font-stretch:normal;text-align:center;line-height:125.00000%;writing-mode:lr-tb;text-anchor:middle;fill:#000000;fill-opacity:1.0000000;stroke:none;stroke-width:1.0000000px;stroke-linecap:butt;stroke-linejoin:miter;stroke-opacity:1.0000000;font-family:Monospace"
           xml:space="preserve"><tspan
             id="tspan16334"
             y="-452.51071"
             x="91.063677"
             sodipodi:role="line">Economic</tspan></text>
      </g>
      <g
         id="g16336">
        <rect
           rx="32.611938"
           ry="32.611938"
           y="14.926056"
           x="591.42255"
           height="140.87224"
           width="40.664436"
           id="rect16338"
           style="font-size:20.000000px;font-style:normal;font-variant:normal;font-weight:normal;font-stretch:normal;text-align:center;line-height:125.00000%;writing-mode:lr-tb;text-anchor:middle;fill:#6362a3;fill-opacity:1.0000000;stroke-linecap:round;stroke-linejoin:round;font-family:Monospace" />
        <text
           transform="matrix(0.000000,0.924327,-1.081868,0.000000,0.000000,0.000000)"
           sodipodi:linespacing="125.00000%"
           id="text16340"
           y="-560.46143"
           x="92.126007"
           style="font-size:19.999588px;font-style:normal;font-variant:normal;font-weight:normal;font-stretch:normal;text-align:center;line-height:125.00000%;writing-mode:lr-tb;text-anchor:middle;fill:#000000;fill-opacity:1.0000000;stroke:none;stroke-width:1.0000000px;stroke-linecap:butt;stroke-linejoin:miter;stroke-opacity:1.0000000;font-family:Monospace"
           xml:space="preserve"><tspan
             id="tspan16342"
             y="-560.46143"
             x="92.126006"
             sodipodi:role="line">Biological</tspan></text>
      </g>
      <g
         id="g16344"
         transform="translate(16.75475,0.000000)">
        <rect
           rx="32.611938"
           ry="32.611938"
           y="12.926056"
           x="239.66779"
           height="140.87224"
           width="40.664436"
           id="rect16346"
           style="font-size:20.000000px;font-style:normal;font-variant:normal;font-weight:normal;font-stretch:normal;text-align:center;line-height:125.00000%;writing-mode:lr-tb;text-anchor:middle;fill:#6362a3;fill-opacity:1.0000000;stroke-linecap:round;stroke-linejoin:round;font-family:Monospace" />
        <text
           transform="matrix(0.000000,0.924327,-1.081868,0.000000,0.000000,0.000000)"
           sodipodi:linespacing="125.00000%"
           id="text16348"
           y="-239.33871"
           x="90.235703"
           style="font-size:19.999609px;font-style:normal;font-variant:normal;font-weight:normal;font-stretch:normal;text-align:center;line-height:125.00000%;writing-mode:lr-tb;text-anchor:middle;fill:#000000;fill-opacity:1.0000000;stroke:none;stroke-width:1.0000000px;stroke-linecap:butt;stroke-linejoin:miter;stroke-opacity:1.0000000;font-family:Monospace"
           xml:space="preserve"><tspan
             id="tspan16350"
             y="-239.33871"
             x="90.235701"
             sodipodi:role="line">.....</tspan></text>
      </g>
    </g>
  </g>
</svg>
